,model_type,test_precision,test_recall,test_precision_pm2,test_recall_pm2
0,high_precision,0.6427889207258835,0.5452151898734178,0.7618194842406877,0.6802046690118324
1,high_recall,0.5374275392758128,0.6477974683544304,0.6831050995547341,0.7860595514307811
